module broker

go 1.22.1

require (
	github.com/go-chi/chi/v5 v5.0.12
	github.com/go-chi/cors v1.2.1
	github.com/google/uuid v1.6.0
	github.com/lestrrat-go/file-rotatelogs v2.4.0+incompatible
	github.com/rabbitmq/amqp091-go v1.10.0
	github.com/spf13/viper v1.18.2
	go.uber.org/zap v1.27.0
)

require (
	github.com/fsnotify/fsnotify v1.7.0 // indirect
	github.com/hashicorp/hcl v1.0.0 // indirect
	github.com/jonboulle/clockwork v0.4.0 // indirect
	github.com/lestrrat-go/strftime v1.0.6 // indirect
	github.com/magiconair/properties v1.8.7 // indirect
	github.com/mitchellh/mapstructure v1.5.0 // indirect
	github.com/pelletier/go-toml/v2 v2.1.0 // indirect
	github.com/pkg/errors v0.9.1 // indirect
	github.com/sagikazarmark/locafero v0.4.0 // indirect
	github.com/sagikazarmark/slog-shim v0.1.0 // indirect
	github.com/sourcegraph/conc v0.3.0 // indirect
	github.com/spf13/afero v1.11.0 // indirect
	github.com/spf13/cast v1.6.0 // indirect
	github.com/spf13/pflag v1.0.5 // indirect
	github.com/subosito/gotenv v1.6.0 // indirect
	go.uber.org/multierr v1.10.0 // indirect
	golang.org/x/exp v0.0.0-20230905200255-921286631fa9 // indirect
	golang.org/x/sys v0.15.0 // indirect
	golang.org/x/text v0.14.0 // indirect
	gopkg.in/ini.v1 v1.67.0 // indirect
	gopkg.in/yaml.v3 v3.0.1 // indirect
)
